3 Post-Survey Data Preparation – Survey Data Analysis
…
# Remove temporary indicator so it does not affect later summaries/plots
df <- df %>%
  dplyr::select(-gender_missing)

If program is a significant predictor of gender being missing, that is evidence of MAR (not MCAR). The missing data are systematically related to something we did observe.

NMAR cannot be formally tested from the data alone—by definition, it depends on the unobserved values. If you have theoretical reasons to believe missingness is related to the missing value itself (e.g., sicker patients more likely to drop out of a health study), acknowledge this as a limitation and consider sensitivity analyses.

3.8.4 Numerical Summaries

# Count and percentage of NAs per variable
naniar::miss_var_summary(df)

# A tibble: 39 × 3
   variable             n_miss pct_miss
   <chr>                 <int>    <num>
 1 native_speaker           13       26
 2 gender                   12       24
 3 ability_confidence2       5       10
 4 ability_confidence3       4        8
 5 ability_confidence4       4        8
 6 ability_confidence5       4        8
 7 ability_confidence7       4        8
 8 learning_confidence2      4        8
 9 learning_confidence4      4        8
10 learning_confidence5      4        8
# ℹ 29 more rows

# Count and percentage of NAs per case (row)
naniar::miss_case_summary(df)

# A tibble: 50 × 3
    case n_miss pct_miss
   <int>  <int>    <dbl>
 1    21     37    94.9 
 2    22     16    41.0 
 3    23     15    38.5 
 4    24     15    38.5 
 5    26      3     7.69
 6    43      3     7.69
 7    27      2     5.13
 8    29      2     5.13
 9    30      2     5.13
10    31      2     5.13
# ℹ 40 more rows
…
